<?xml version="1.0"?>

<robot name="kobuki_sim" xmlns:xacro="http://ros.org/wiki/xacro">
  <xacro:macro name="kobuki_sim">
	  <gazebo reference="wheel_left_link">
	    <mu1>1.0</mu1>
	    <mu2>1.0</mu2>
	    <kp>1000000.0</kp>
	    <kd>100.0</kd>
	    <minDepth>0.001</minDepth>
	    <maxVel>1.0</maxVel>
	  </gazebo>

	  <gazebo reference="wheel_right_link">
	    <mu1>1.0</mu1>
	    <mu2>1.0</mu2>
	    <kp>1000000.0</kp>
	    <kd>100.0</kd>
	    <minDepth>0.001</minDepth>
	    <maxVel>1.0</maxVel>
	  </gazebo>

	  <gazebo reference="caster_front_link">
	    <mu1>0.0</mu1>
	    <mu2>0.0</mu2>
	    <kp>1000000.0</kp>
	    <kd>100.0</kd>
	    <minDepth>0.001</minDepth>
	    <maxVel>1.0</maxVel>
	  </gazebo>

	  <gazebo reference="caster_back_link">
	    <mu1>0.0</mu1>
	    <mu2>0.0</mu2>
	    <kp>1000000.0</kp>
	    <kd>100.0</kd>
	    <minDepth>0.001</minDepth>
	    <maxVel>1.0</maxVel>
	  </gazebo>

	  <gazebo reference="base_link">
	    <mu1>0.3</mu1>
	    <mu2>0.3</mu2>
	    <sensor type="contact" name="bumpers">
	      <always_on>1</always_on>
	      <update_rate>50.0</update_rate>
	      <visualize>true</visualize>
	      <contact>
	        <collision>base_footprint_fixed_joint_lump__base_collision</collision>
	      </contact>
	    </sensor>
	  </gazebo>

	  <gazebo reference="cliff_sensor_left_link">
	    <sensor type="ray" name="cliff_sensor_left">
	      <always_on>true</always_on>
	      <update_rate>50</update_rate>
	      <visualize>true</visualize>
	      <ray>
	        <scan>
	          <horizontal>
	            <samples>50</samples>
	            <resolution>1.0</resolution>
	            <min_angle>-0.0436</min_angle>  <!-- -2.5 degree -->
	            <max_angle>0.0436</max_angle> <!-- 2.5 degree -->
	          </horizontal>
<!--            Can't use vertical rays until this bug is resolved: -->
<!--            https://bitbucket.org/osrf/gazebo/issue/509/vertical-sensor-doesnt-works -->
<!-- 	          <vertical> -->
<!-- 	            <samples>50</samples> -->
<!-- 	            <resolution>1.0</resolution> -->
<!-- 	            <min_angle>-0.0436</min_angle>  -2.5 degree -->
<!-- 	            <max_angle>0.0436</max_angle> 2.5 degree -->
<!-- 	          </vertical> -->
	        </scan>
	        <range>
	          <min>0.01</min>
	          <max>0.15</max>
	          <resolution>1.0</resolution>
	        </range>
	      </ray>
	    </sensor>
	  </gazebo>

	  <gazebo reference="cliff_sensor_right_link">
	    <sensor type="ray" name="cliff_sensor_right">
	      <always_on>true</always_on>
	      <update_rate>50</update_rate>
	      <visualize>true</visualize>
	      <ray>
	        <scan>
	          <horizontal>
	            <samples>50</samples>
	            <resolution>1.0</resolution>
	            <min_angle>-0.0436</min_angle>  <!-- -2.5 degree -->
	            <max_angle>0.0436</max_angle> <!-- 2.5 degree -->
	          </horizontal>
<!--            Can't use vertical rays until this bug is resolved: -->
<!--            https://bitbucket.org/osrf/gazebo/issue/509/vertical-sensor-doesnt-works -->
<!-- 	          <vertical> -->
<!-- 	            <samples>50</samples> -->
<!-- 	            <resolution>1.0</resolution> -->
<!-- 	            <min_angle>-0.0436</min_angle>  -2.5 degree -->
<!-- 	            <max_angle>0.0436</max_angle> 2.5 degree -->
<!-- 	          </vertical> -->
	        </scan>
	        <range>
	          <min>0.01</min>
	          <max>0.15</max>
	          <resolution>1.0</resolution>
	        </range>
	      </ray>
	    </sensor>
	  </gazebo>

	  <gazebo reference="cliff_sensor_front_link">
	    <sensor type="ray" name="cliff_sensor_front">
	      <always_on>true</always_on>
	      <update_rate>50</update_rate>
	      <visualize>true</visualize>
	      <ray>
	        <scan>
	          <horizontal>
	            <samples>50</samples>
	            <resolution>1.0</resolution>
	            <min_angle>-0.0436</min_angle>  <!-- -2.5 degree -->
	            <max_angle>0.0436</max_angle> <!-- 2.5 degree -->
	          </horizontal>
<!-- 	          Can't use vertical rays until this bug is resolved: -->
<!--            https://bitbucket.org/osrf/gazebo/issue/509/vertical-sensor-doesnt-works -->
<!-- 	          <vertical> -->
<!-- 	            <samples>50</samples> -->
<!-- 	            <resolution>1.0</resolution> -->
<!-- 	            <min_angle>-0.0436</min_angle>  -2.5 degree -->
<!-- 	            <max_angle>0.0436</max_angle> 2.5 degree -->
<!-- 	          </vertical> -->
	        </scan>
	        <range>
	          <min>0.01</min>
	          <max>0.15</max>
	          <resolution>1.0</resolution>
	        </range>
	      </ray>
	    </sensor>
	  </gazebo>

	  <gazebo reference="gyro_link">
	   <sensor type="imu" name="imu">
        <always_on>true</always_on>
        <update_rate>80.0</update_rate>
        <visualize>false</visualize>
        <imu>
          <noise>
            <type>gaussian</type>
	          <rate>
	            <mean>0.0</mean>
	            <stddev>0.0</stddev> <!-- 0.25 x 0.25 (deg/s) -->
	            <bias_mean>0.0</bias_mean>
	            <bias_stddev>0.0</bias_stddev>
	          </rate>
		        <accel> <!-- not used in the plugin and real robot, hence using tutorial values -->
			        <mean>0.0</mean>
			        <stddev>0</stddev>
			        <bias_mean>0.0</bias_mean>
			        <bias_stddev>0.0</bias_stddev>
		        </accel>
          </noise>
	      </imu>
      </sensor>
	  </gazebo>

	  <gazebo>
	    <plugin name="kobuki_controller" filename="libgazebo_ros_kobuki.so">
	      <publish_tf>1</publish_tf>
	      <left_wheel_joint_name>wheel_left_joint</left_wheel_joint_name>
	      <right_wheel_joint_name>wheel_right_joint</right_wheel_joint_name>
	      <wheel_separation>.230</wheel_separation>
	      <wheel_diameter>0.070</wheel_diameter>
	      <torque>1.0</torque>
	      <velocity_command_timeout>0.6</velocity_command_timeout>
	      <cliff_sensor_left_name>cliff_sensor_left</cliff_sensor_left_name>
	      <cliff_sensor_center_name>cliff_sensor_front</cliff_sensor_center_name>
	      <cliff_sensor_right_name>cliff_sensor_right</cliff_sensor_right_name>
	      <cliff_detection_threshold>0.04</cliff_detection_threshold>
	      <bumper_name>bumpers</bumper_name>
        	<imu_name>imu</imu_name>
	    </plugin>
	  </gazebo>
  </xacro:macro>
</robot>
